Explore spotify songs
…
# A tibble: 6 × 2
  playlist_genre     n
  <chr>          <int>
1 edm             4877
2 latin           4137
3 pop             5132
4 r&b             4504
5 rap             5401
6 rock            4305

spoty |> 
    count(playlist_subgenre)

# A tibble: 24 × 2
   playlist_subgenre     n
   <chr>             <int>
 1 album rock         1039
 2 big room           1034
 3 classic rock       1100
 4 dance pop          1298
 5 electro house      1416
 6 electropop         1251
 7 gangster rap       1316
 8 hard rock          1202
 9 hip hop            1296
10 hip pop             803
# ℹ 14 more rows

spoty |> 
    count(playlist_genre, playlist_subgenre)

# A tibble: 24 × 3
   playlist_genre playlist_subgenre             n
   <chr>          <chr>                     <int>
 1 edm            big room                   1034
 2 edm            electro house              1416
 3 edm            pop edm                     967
 4 edm            progressive electro house  1460
 5 latin          latin hip hop              1194
 6 latin          latin pop                  1097
 7 latin          reggaeton                   688
 8 latin          tropical                   1158
 9 pop            dance pop                  1298
10 pop            electropop                 1251
# ℹ 14 more rows
…
spoty |> 
    arrange(-track_popularity)

# A tibble: 28,356 × 23
   track_id              track_name track_artist track_popularity track_album_id
   <chr>                 <chr>      <chr>                   <dbl> <chr>         
 1 2XU0oxnq2qxCpomAAuJY… Dance Mon… Tones and I               100 0UywfDKYlyiu1…
 2 696DnlkuDOXcMAnKlTgX… ROXANNE    Arizona Zer…               99 6HJDrXs0hpeba…
 3 0nbXyq5TXYPCO7pr3N8S… The Box    Roddy Ricch                98 52u4anZbHd6UI…
 4 0sf12qNH5qcw8qpgymFO… Blinding … The Weeknd                 98 2ZfHkwHuoAZrl…
 5 21jGcNKet2qwijlDFuPi… Circles    Post Malone                98 4g1ZRSobMefqF…
 6 2b8fOow8UzyDFAE27YhO… Memories   Maroon 5                   98 3nR9B40hYLKLc…
 7 7k4t7uLgtOxPwTpFmtJN… Tusa       KAROL G                    98 7mKevNHhVnZER…
 8 3ZCTVFBt2Brf31RLEnCk… everythin… Billie Eili…               97 4i3rAwPw7Ln2Y…
 9 4TnjEaWOeW0eKTKIEvJy… Falling    Trevor Dani…               97 1Czfd5tEby3Db…
10 6WrI0LAC5M1Rw2MnX2Zv… Don't Sta… Dua Lipa                   97 0ix3XtPV1LwmZ…
# ℹ 28,346 more rows
# ℹ 18 more variables: track_album_name <chr>, track_album_release_date <chr>,
#   playlist_name <chr>, playlist_id <chr>, playlist_genre <chr>,
#   playlist_subgenre <chr>, danceability <dbl>, energy <dbl>, key <dbl>,
#   loudness <dbl>, mode <dbl>, speechiness <dbl>, acousticness <dbl>,
#   instrumentalness <dbl>, liveness <dbl>, valence <dbl>, tempo <dbl>,
#   duration_ms <dbl>
…
